Principal Component Pursuit for Environmental Epidemiology • pcpr
…
PCP outperformed PCA by quite a bit! PCP’s relative recovery error on the L_0 matrix stood at only 3.34%, compared to an observed relative error of 29.44% and PCA’s relative error of 23.4%. PCP’s sparse matrix estimate was only off from the ground truth S_0 by 5.92%.

We can now pair our estimated L matrix with any matrix factorization method of our choice (e.g. factor analysis or NMF) to extract the latent chemical exposure patterns. These patterns, along with the isolated outlying exposure events in S, can then be incorporated with any outcomes of interest in downstream epidemiological analyses.

A real world application

The pcpr package also ships with a real world air pollution dataset queens consisting of fine particulate matter measurements (in µg/m^3) of 26 PM2.5 chemical species, recorded every three to six days from 04/04/2001 through 12/30/2021 courtesy of an EPA AQS monitoring site in Queens, New York City (NYC):

queens
#> # A tibble: 2,443 × 27
#>    Date            Al   NH4      As     Ba       Br     Cd      Ca      Cl
#>    <date>       <dbl> <dbl>   <dbl>  <dbl>    <dbl>  <dbl>   <dbl>   <dbl>
#>  1 2001-04-04 NA      1.62  NA      NA     NA       NA     NA      NA     
#>  2 2001-04-07  0      2.66   0       0.012  0.00488  0      0.0401  0.0079
#>  3 2001-04-13  0.0094 1.41   0.0016  0.024  0.00211  0.004  0.036   0     
#>  4 2001-04-19  0.0104 1.22   0.001   0.006  0.00422  0      0.0543  0.003 
#>  5 2001-04-25  0.0172 0.723  0.0024  0.015  0.00117  0      0.0398  0     
#>  6 2001-05-01  0.0384 3.48   0.0017  0.041  0.00873  0.001  0.136   0     
#>  7 2001-05-04  0.0964 6.22   0.0025  0.039  0.0111   0      0.137   0     
#>  8 2001-05-07  0.004  0.233  0.001   0.016  0.00263  0      0.055   0.0054
#>  9 2001-05-10  0.0547 2.04   0.001   0.055  0.00521  0      0.121   0.001 
#> 10 2001-05-13  0.0215 0.229  0       0.021  0.00122  0      0.0249  0     
#> # ℹ 2,433 more rows
#> # ℹ 18 more variables: Cr <dbl>, Cu <dbl>, EC <dbl>, Fe <dbl>, Pb <dbl>,
#> #   Mg <dbl>, Mn <dbl>, Ni <dbl>, OC <dbl>, K <dbl>, Se <dbl>, Si <dbl>,
#> #   Na <dbl>, S <dbl>, Ti <dbl>, NO3 <dbl>, V <dbl>, Zn <dbl>
…
