Air pollution source apportionment with PCP • pcpr
…
Preprocessing

Exploring the raw data

We start by examining the raw queens data:

queens
#> # A tibble: 2,443 × 27
#>    Date            Al   NH4      As     Ba       Br     Cd      Ca      Cl
#>    <date>       <dbl> <dbl>   <dbl>  <dbl>    <dbl>  <dbl>   <dbl>   <dbl>
#>  1 2001-04-04 NA      1.62  NA      NA     NA       NA     NA      NA     
#>  2 2001-04-07  0      2.66   0       0.012  0.00488  0      0.0401  0.0079
#>  3 2001-04-13  0.0094 1.41   0.0016  0.024  0.00211  0.004  0.036   0     
#>  4 2001-04-19  0.0104 1.22   0.001   0.006  0.00422  0      0.0543  0.003 
#>  5 2001-04-25  0.0172 0.723  0.0024  0.015  0.00117  0      0.0398  0     
#>  6 2001-05-01  0.0384 3.48   0.0017  0.041  0.00873  0.001  0.136   0     
#>  7 2001-05-04  0.0964 6.22   0.0025  0.039  0.0111   0      0.137   0     
#>  8 2001-05-07  0.004  0.233  0.001   0.016  0.00263  0      0.055   0.0054
#>  9 2001-05-10  0.0547 2.04   0.001   0.055  0.00521  0      0.121   0.001 
#> 10 2001-05-13  0.0215 0.229  0       0.021  0.00122  0      0.0249  0     
#> # ℹ 2,433 more rows
#> # ℹ 18 more variables: Cr <dbl>, Cu <dbl>, EC <dbl>, Fe <dbl>, Pb <dbl>,
#> #   Mg <dbl>, Mn <dbl>, Ni <dbl>, OC <dbl>, K <dbl>, Se <dbl>, Si <dbl>,
#> #   Na <dbl>, S <dbl>, Ti <dbl>, NO3 <dbl>, V <dbl>, Zn <dbl>
…
Below we remove the all measurements made before 2015, yielding the
queens_small dataset that we will use moving forward. We
make this decision because we have prior knowledge that in the years
leading up to 2015, gradually, many Midwestern coal-fired power plants
closed, reducing the regional / secondary signal experienced in downwind
Queens, NYC after 2015 (Hopke et
al. (2024)). We are interested in looking at the trends in the data
after this (soft) change.

start_date <- "2015-01-01"
queens_small <- queens %>% filter(Date >= as.Date(start_date))
queens_small
#> # A tibble: 838 × 27
#>    Date           Al   NH4     As     Ba      Br     Cd      Ca      Cl     Cr
#>    <date>      <dbl> <dbl>  <dbl>  <dbl>   <dbl>  <dbl>   <dbl>   <dbl>  <dbl>
#>  1 2015-01-03  0     0.439  0      0      0.003   0      0.0336  0.0168  0.005
#>  2 2015-01-06  0     1.2    0      0.005  0.0041  0      0.0522  0.0716  0    
#>  3 2015-01-09 NA     0.911 NA     NA     NA      NA     NA      NA      NA    
#>  4 2015-01-12  0.014 1.21   0.001  0.016  0.0075  0      0.0651  0.134   0    
#>  5 2015-01-15  0.016 2.28   0      0.012  0.0054  0      0.0798  0.142   0    
#>  6 2015-01-18  0     0.365  0      0.001  0.002   0      0.0569  0.159   0    
#>  7 2015-01-21  0     0.496  0      0      0.0027  0      0.0334  0.0428  0    
#>  8 2015-01-24  0     1.66   0      0      0.0046  0.007  0.0293  0.0275  0    
#>  9 2015-01-27  0     0.281  0      0      0.001   0      0.0298  0.0325  0    
#> 10 2015-01-30  0.005 1.07   0      0.017  0.0018  0      0.0614  0.0633  0.003
#> # ℹ 828 more rows
#> # ℹ 17 more variables: Cu <dbl>, EC <dbl>, Fe <dbl>, Pb <dbl>, Mg <dbl>,
#> #   Mn <dbl>, Ni <dbl>, OC <dbl>, K <dbl>, Se <dbl>, Si <dbl>, Na <dbl>,
#> #   S <dbl>, Ti <dbl>, NO3 <dbl>, V <dbl>, Zn <dbl>
…
progressr::with_progress({
gs <- grid_search_cv(
  D, pcp_fn = rrmc,
  grid = data.frame(eta = 10^seq(-1, 2, 1) * round(eta_0, 3)),
  r = 8,
  parallel_strategy = "multisession",
  num_workers = 16,
  verbose = FALSE
)
})
r_star <- gs$summary_stats$r[1]
eta_star <- round(gs$summary_stats$eta[1], 3)
gs$summary_stats

#> # A tibble: 32 × 7
#>      eta     r rel_err L_rank S_sparsity iterations run_error_perc
#>    <dbl> <int>   <dbl>  <dbl>      <dbl>      <dbl> <chr>         
#>  1  0.1      4   0.732      4      0.993        NaN 0%            
#>  2  0.1      3   0.733      3      0.995        NaN 0%            
#>  3  0.1      2   0.752      2      0.993        NaN 0%            
#>  4  0.1      1   0.756      1      0.991        NaN 0%            
#>  5  1        1   0.756      1      1            NaN 0%            
#>  6  1        2   0.760      2      1            NaN 0%            
#>  7  1        3   0.805      3      1            NaN 0%            
#>  8  0.01     7   0.806      1      0.173        NaN 0%            
#>  9  0.01     8   0.806      1      0.173        NaN 0%            
#> 10  0.01     5   0.806      1      0.173        NaN 0%            
#> # ℹ 22 more rows
…
