Quickstart: applying PCP to a simulated environmental mixture • pcpr
…
r_star <- gs$summary_stats$r[1]
eta_star <- round(gs$summary_stats$eta[1], 3)
gs$summary_stats
#> # A tibble: 30 × 7
#>      eta     r rel_err L_rank S_sparsity iterations run_error_perc
#>    <dbl> <int>   <dbl>  <dbl>      <dbl>      <dbl> <chr>         
#>  1 0.224     3   0.145   3         0.968        NaN 0%            
#>  2 0.313     3   0.150   3         0.984        NaN 0%            
#>  3 0.224     4   0.167   4         0.967        NaN 0%            
#>  4 0.134     5   0.168   2.21      0.199        NaN 0%            
#>  5 0.134     3   0.168   2.21      0.199        NaN 0%            
#>  6 0.134     4   0.168   2.21      0.199        NaN 0%            
#>  7 0.402     3   0.169   3         0.993        NaN 0%            
#>  8 0.134     2   0.173   2         0.342        NaN 0%            
#>  9 0.224     2   0.174   2         0.992        NaN 0%            
#> 10 0.402     2   0.182   2         1.00         NaN 0%            
#> # ℹ 20 more rows
…
